<svg xmlns="http://www.w3.org/2000/svg" viewBox="0 0 2 2">
    <circle cx="1" cy="1" r="1" fill="rgb(203, 235, 255)" />
    <circle cx="1" cy="1" r="1" fill="rgb(240, 249, 255)" style="animation:b 9s infinite" />
    <style>
        @keyframes b {
            0%,
            to {
                transform-origin: center;
                transform: scale(0.4);
            }
            50% {
                transform: scale(1);
            }
        }
    </style>
</svg>